…
## Questions
The questions below are open-ended and have many possible solutions. Your approach should, where appropriate, include numerical summaries and visuals. Be creative; assume you are building an analysis that you would ultimately present to an audience of stakeholders. Feel free to try out different `geoms` if they more clearly present your results.  

**1. Use the function(s) of your choice to get an idea of the overall structure of the data frame, including its dimensions, column names, variable classes, etc. As part of this, determine how NA's are treated in the data.**  

```r
gapminder
```

```
## # A tibble: 1,704 x 6
##    country     continent  year lifeExp      pop gdpPercap
##    <fct>       <fct>     <int>   <dbl>    <int>     <dbl>
##  1 Afghanistan Asia       1952    28.8  8425333      779.
##  2 Afghanistan Asia       1957    30.3  9240934      821.
##  3 Afghanistan Asia       1962    32.0 10267083      853.
##  4 Afghanistan Asia       1967    34.0 11537966      836.
##  5 Afghanistan Asia       1972    36.1 13079460      740.
##  6 Afghanistan Asia       1977    38.4 14880372      786.
##  7 Afghanistan Asia       1982    39.9 12881816      978.
##  8 Afghanistan Asia       1987    40.8 13867957      852.
##  9 Afghanistan Asia       1992    41.7 16317921      649.
## 10 Afghanistan Asia       1997    41.8 22227415      635.
## # … with 1,694 more rows
```
…
**5. How has life expectancy changed between 1952-2007 for each continent?**

```r
gapminder_obj %>% 
  group_by(continent, year) %>% 
  summarize(mean_life=mean(life_exp))
```

```
## `summarise()` regrouping output by 'continent' (override with `.groups` argument)
```

```
## # A tibble: 60 x 3
## # Groups:   continent [5]
##    continent year  mean_life
##    <fct>     <fct>     <dbl>
##  1 Africa    1952       39.1
##  2 Africa    1957       41.3
##  3 Africa    1962       43.3
##  4 Africa    1967       45.3
##  5 Africa    1972       47.5
##  6 Africa    1977       49.6
##  7 Africa    1982       51.6
##  8 Africa    1987       53.3
##  9 Africa    1992       53.6
## 10 Africa    1997       53.6
## # … with 50 more rows
```
…
**7. Which countries have had the largest population growth since 1952?**

```r
gapminder_growth <- gapminder %>% 
  group_by(country) %>% 
  filter(year=="1952"|year=="2007") %>% 
  mutate(pop_growth= pop-lag(pop, default=first(pop))) %>% 
  arrange(desc(pop_growth))
gapminder_growth
```

```
## # A tibble: 284 x 7
## # Groups:   country [142]
##    country       continent  year lifeExp        pop gdpPercap pop_growth
##    <fct>         <fct>     <int>   <dbl>      <int>     <dbl>      <int>
##  1 China         Asia       2007    73.0 1318683096     4959.  762419569
##  2 India         Asia       2007    64.7 1110396331     2452.  738396331
##  3 United States Americas   2007    78.2  301139947    42952.  143586947
##  4 Indonesia     Asia       2007    70.6  223547000     3541.  141495000
##  5 Brazil        Americas   2007    72.4  190010647     9066.  133408087
##  6 Pakistan      Asia       2007    65.5  169270617     2606.  127924057
##  7 Bangladesh    Asia       2007    64.1  150448339     1391.  103561480
##  8 Nigeria       Africa     2007    46.9  135031164     2014.  101912068
##  9 Mexico        Americas   2007    76.2  108700891    11978.   78556574
## 10 Philippines   Asia       2007    71.7   91077287     3190.   68638596
## # … with 274 more rows
```
…
