…
```
##  [1] "AK.PEN"  "BAN.JAS" "BC"      "DENALI"  "ELLES"   "GTNP"    "INT.AK" 
##  [8] "MEXICAN" "MI"      "MT"      "N.NWT"   "ONT"     "SE.AK"   "SNF"    
## [15] "SS.NWT"  "YNP"     "YUCH"
```


```r
lower_wolves <- wolves %>% 
  filter(pop!="AK.PEN",pop!="DENALI", pop!="INT.AK", pop!="YUCH", pop!="SE.AK", pop!="BAN.JAS", pop!="ONT", pop!="BC", pop!="SS.NWT", pop!="N.NWT", pop!="ELLES")
lower_wolves
```

```
## # A tibble: 1,169 x 23
##    pop    year age.cat sex   color   lat  long habitat human pop.density
##    <fct> <dbl> <chr>   <chr> <chr> <dbl> <dbl>   <dbl> <dbl>       <dbl>
##  1 GTNP   2012 P       M     G      43.8 -111.  10375. 3924.        34.0
##  2 GTNP   2012 P       F     G      43.8 -111.  10375. 3924.        34.0
##  3 GTNP   2012 P       F     G      43.8 -111.  10375. 3924.        34.0
##  4 GTNP   2012 P       M     B      43.8 -111.  10375. 3924.        34.0
##  5 GTNP   2013 A       F     G      43.8 -111.  10375. 3924.        34.0
##  6 GTNP   2013 A       M     G      43.8 -111.  10375. 3924.        34.0
##  7 GTNP   2013 P       M     G      43.8 -111.  10375. 3924.        34.0
##  8 GTNP   2013 P       M     G      43.8 -111.  10375. 3924.        34.0
##  9 GTNP   2013 P       M     G      43.8 -111.  10375. 3924.        34.0
## 10 GTNP   2013 P       F     G      43.8 -111.  10375. 3924.        34.0
## # … with 1,159 more rows, and 13 more variables: pack.size <dbl>,
## #   standard.habitat <dbl>, standard.human <dbl>, standard.pop <dbl>,
## #   standard.packsize <dbl>, standard.latitude <dbl>, standard.longitude <dbl>,
## #   cav.binary <dbl>, cdv.binary <dbl>, cpv.binary <dbl>, chv.binary <dbl>,
## #   neo.binary <dbl>, toxo.binary <dbl>
```
…
10. Make a new map that shows the distribution of wolves in the lower 48 US states but which has the size of location markers adjusted by pack size.

```r
lower_wolves <- lower_wolves %>% 
   group_by(pop) %>% 
  mutate(mean_pack=mean(pack.size))
lower_wolves
```

```
## # A tibble: 1,169 x 24
## # Groups:   pop [6]
##    pop    year age.cat sex   color   lat  long habitat human pop.density
##    <fct> <dbl> <chr>   <chr> <chr> <dbl> <dbl>   <dbl> <dbl>       <dbl>
##  1 GTNP   2012 P       M     G      43.8 -111.  10375. 3924.        34.0
##  2 GTNP   2012 P       F     G      43.8 -111.  10375. 3924.        34.0
##  3 GTNP   2012 P       F     G      43.8 -111.  10375. 3924.        34.0
##  4 GTNP   2012 P       M     B      43.8 -111.  10375. 3924.        34.0
##  5 GTNP   2013 A       F     G      43.8 -111.  10375. 3924.        34.0
##  6 GTNP   2013 A       M     G      43.8 -111.  10375. 3924.        34.0
##  7 GTNP   2013 P       M     G      43.8 -111.  10375. 3924.        34.0
##  8 GTNP   2013 P       M     G      43.8 -111.  10375. 3924.        34.0
##  9 GTNP   2013 P       M     G      43.8 -111.  10375. 3924.        34.0
## 10 GTNP   2013 P       F     G      43.8 -111.  10375. 3924.        34.0
## # … with 1,159 more rows, and 14 more variables: pack.size <dbl>,
## #   standard.habitat <dbl>, standard.human <dbl>, standard.pop <dbl>,
## #   standard.packsize <dbl>, standard.latitude <dbl>, standard.longitude <dbl>,
## #   cav.binary <dbl>, cdv.binary <dbl>, cpv.binary <dbl>, chv.binary <dbl>,
## #   neo.binary <dbl>, toxo.binary <dbl>, mean_pack <dbl>
```
…
